G28
G4 S1
G90
G1 X0 Y0 Z150 F7000
G91
G4 S0.5


G1 Z-25 F15000
G1 Z25 F650

G1 Z-25 F15000
G1 Z25 F650

G1 Z-25 F15000
G1 Z25 F1300

G1 Z-25 F15000
G1 Z25 F1300

G1 Z-25 F15000
G1 Z25 F650

G1 Z-25 F15000
G1 Z25 F1300

G1 Z-25 F15000
G1 Z25 F1300

G1 Z-25 F15000
G1 Z25 F1300

G1 Z-25 F15000
G1 Z25 F1300

G1 Z-25 F15000
G1 Z25 F1300

G1 Z-25 F15000
G1 Z25 F1300

G1 Z-25 F15000
G1 Z25 F650

G1 Z-25 F15000
G1 Z25 F1300

G1 Z-25 F15000
G1 Z25 F5200

G1 Z-25 F15000
G1 Z25 F5200

G1 Z-25 F15000
G1 Z25 F2600

G1 Z-25 F15000
G1 Z25 F650

G1 Z-25 F15000
G1 Z25 F1300

G1 Z-25 F15000
G1 Z25 F5200

G1 Z-25 F15000
G1 Z25 F5200

G1 Z-25 F15000
G1 Z25 F2600

G1 Z-25 F15000
G1 Z25 F650

G1 Z-25 F15000
G1 Z25 F1300

G1 Z-25 F15000
G1 Z25 F5200

G1 Z-25 F15000
G1 Z25 F5200

G1 Z-25 F15000
G1 Z25 F2600

G1 Z-25 F15000
G1 Z25 F650

G1 Z-25 F15000
G1 Z25 F1300

G1 Z-25 F15000
G1 Z25 F5200

G1 Z-25 F15000
G1 Z25 F5200

G1 Z-25 F15000
G1 Z25 F2600

G1 Z-25 F15000
G1 Z25 F650

G1 Z-25 F15000
G1 Z25 F1300

G1 Z-25 F15000
G1 Z25 F1300

G1 Z-25 F15000
G1 Z25 F1300

G1 Z-25 F15000
G1 Z25 F1300

G1 Z-25 F15000
G1 Z25 F1300

G1 Z-25 F15000
G1 Z25 F1300

G1 Z-25 F15000
G1 Z25 F2600

G1 Z-25 F15000
G1 Z25 F2600

G1 Z-25 F15000
G1 Z25 F2600

G1 Z-25 F15000
G1 Z25 F2600

G1 Z25
G1 X25
G2 I-25 J0
G2 I-25 J0
G2 I-25 J0
G2 I-25 J0
G2 I-25 J0
G2 I-25 J0
G2 I-25 J0
G2 I-25 J0
G2 I-25 J0
G2 I-25 J0
G2 I-25 J0
G2 I-25 J0
G4 S0.019


G90
G1 X0 Y0 Z150 F7000
G91
G4 S0.5


G1 Z-25 F15000
G1 Z25 F5200

G1 Z-25 F15000
G1 Z25 F5200

G1 Z-25 F15000
G1 Z25 F5200

G1 Z-25 F15000
G1 Z25 F5200

G1 Z-25 F15000
G1 Z25 F5200

G1 Z-25 F15000
G1 Z25 F5200

G1 Z-25 F15000
G1 Z25 F5200

G1 Z-25 F15000
G1 Z25 F5200

G1 Z-25 F15000
G1 Z25 F5200

G1 Z-25 F15000
G1 Z25 F5200

G1 Z-25 F15000
G1 Z25 F5200

G1 Z-25 F15000
G1 Z25 F5200

G1 Z-25 F15000
G1 Z25 F5200

G1 Z-25 F15000
G1 Z25 F5200

G1 Z-25 F15000
G1 Z25 F5200

G1 Z-25 F15000
G1 Z25 F5200

G1 Z-25 F15000
G1 Z25 F5200

G1 Z-25 F15000
G1 Z25 F5200

G1 Z-25 F15000
G1 Z25 F5200

G1 Z-25 F15000
G1 Z25 F5200

G1 Z-25 F15000
G1 Z25 F5200

G1 Z-25 F15000
G1 Z25 F5200

G1 Z-25 F15000
G1 Z25 F5200

G1 Z-25 F15000
G1 Z25 F5200

G1 Z-25 F15000
G1 Z25 F10400

G1 Z-25 F15000
G1 Z25 F10400

G1 Z-25 F15000
G1 Z25 F10400

G1 Z-25 F15000
G1 Z25 F10400

G1 Z-25 F15000
G1 Z25 F10400

G1 Z-25 F15000
G1 Z25 F10400

G1 Z-25 F15000
G1 Z25 F10400

G1 Z-25 F15000
G1 Z25 F10400

G1 Z-25 F15000
G1 Z25 F10400

G1 Z-25 F15000
G1 Z25 F10400

G1 Z-25 F15000
G1 Z25 F10400

G1 Z-25 F15000
G1 Z25 F10400

G1 Z-25 F15000
G1 Z25 F10400

G1 Z-25 F15000
G1 Z25 F10400

G1 Z-25 F15000
G1 Z25 F10400

G1 Z-25 F15000
G1 Z25 F10400

G1 Z-25 F15000
G1 Z25 F10400

G1 Z-25 F15000
G1 Z25 F10400

G1 Z-25 F15000
G1 Z25 F10400

G1 Z-25 F15000
G1 Z25 F10400

G1 Z-25 F15000
G1 Z25 F10400

G1 Z-25 F15000
G1 Z25 F10400

G1 Z-25 F15000
G1 Z25 F10400

G1 Z-25 F15000
G1 Z25 F10400

G1 Z-25 F15000
G1 Z25 F10400

G1 Z-25 F15000
G1 Z25 F10400

G1 Z-25 F15000
G1 Z25 F10400

G1 Z-25 F15000
G1 Z25 F10400

G1 Z-25 F15000
G1 Z25 F10400

G1 Z-25 F15000
G1 Z25 F10400

G1 Z-25 F15000
G1 Z25 F10400

G1 Z-25 F15000
G1 Z25 F10400

G1 Z-25 F15000
G1 Z25 F10400

G1 Z-25 F15000
G1 Z25 F10400

G1 Z-25 F15000
G1 Z25 F10400

G1 Z-25 F15000
G1 Z25 F10400

G1 Z-25 F15000
G1 Z25 F10400

G1 Z-25 F15000
G1 Z25 F10400

G1 Z-25 F15000
G1 Z25 F10400

G1 Z-25 F15000
G1 Z25 F10400

G1 Z-25 F15000
G1 Z25 F10400

G1 Z-25 F15000
G1 Z25 F10400

G1 Z-25 F15000
G1 Z25 F10400

G1 Z-25 F15000
G1 Z25 F10400

G1 Z-25 F15000
G1 Z25 F10400

G1 Z-25 F15000
G1 Z25 F10400

G1 Z-25 F15000
G1 Z25 F10400

G1 Z-25 F15000
G1 Z25 F10400

G4 S0.019


G1 X25
G2 I-25 J0
G2 I-25 J0
G2 I-25 J0
G2 I-25 J0
G2 I-25 J0
G2 I-25 J0
G2 I-25 J0
G2 I-25 J0
G2 I-25 J0
G2 I-25 J0
G2 I-25 J0
G2 I-25 J0
G4 S0.019


G90
G1 X0 Y0 Z150 F7000
G91
G4 S0.5


G1 Z-25 F15000
G1 Z25 F5200

G1 Z-25 F15000
G1 Z25 F5200

G4 S0.69


G1 Z-25 F15000
G1 Z25 F5200

G1 Z-25 F15000
G1 Z25 F5200

G4 S0.69


G1 Z-25 F15000
G1 Z25 F2600

G1 Z-25 F15000
G1 Z25 F2600

G4 S0.69


G4 S0.69


G1 Z-25 F15000
G1 Z25 F650

G1 Z-25 F15000
G1 Z25 F5200

G1 Z-25 F15000
G1 Z25 F5200

G4 S0.69


G1 Z-25 F15000
G1 Z25 F5200

G1 Z-25 F15000
G1 Z25 F5200

G4 S0.69


G1 Z-25 F15000
G1 Z25 F2600

G1 Z-25 F15000
G1 Z25 F2600

G4 S0.69


G4 S0.69


G1 Z-25 F15000
G1 Z25 F650

G1 Z-25 F15000
G1 Z25 F5200

G1 Z-25 F15000
G1 Z25 F5200

G4 S0.69


G1 Z-25 F15000
G1 Z25 F5200

G1 Z-25 F15000
G1 Z25 F5200

G4 S0.69


G1 Z-25 F15000
G1 Z25 F2600

G1 Z-25 F15000
G1 Z25 F2600

G4 S0.69


G4 S0.69


G1 Z-25 F15000
G1 Z25 F650

G1 Z-25 F15000
G1 Z25 F5200

G1 Z-25 F15000
G1 Z25 F5200

G4 S0.69


G1 Z-25 F15000
G1 Z25 F5200

G1 Z-25 F15000
G1 Z25 F5200

G4 S0.69


G1 Z-25 F15000
G1 Z25 F2600

G1 Z-25 F15000
G1 Z25 F2600

G4 S0.69


G4 S0.69


G1 Z-25 F15000
G1 Z25 F650

G1 Z-25 F15000
G1 Z25 F5200

G1 Z-25 F15000
G1 Z25 F5200

G4 S0.69


G1 Z-25 F15000
G1 Z25 F5200

G1 Z-25 F15000
G1 Z25 F5200

G4 S0.69


G1 Z-25 F15000
G1 Z25 F2600

G1 Z-25 F15000
G1 Z25 F2600

G4 S0.69


G4 S0.69


G1 Z-25 F15000
G1 Z25 F650

G1 Z-25 F15000
G1 Z25 F5200

G1 Z-25 F15000
G1 Z25 F5200

G4 S0.69


G1 Z-25 F15000
G1 Z25 F5200

G1 Z-25 F15000
G1 Z25 F5200

G4 S0.69


G1 Z-25 F15000
G1 Z25 F2600

G1 Z-25 F15000
G1 Z25 F2600

G4 S0.69


G4 S0.69


G1 Z-25 F15000
G1 Z25 F650

G28