G28
G4 S1
G90
G1 X0 Y0 Z150 F7000
G91
G4 S0.5


G1 X25
G2 I-25 J0
G2 I-25 J0
G2 I-25 J0
G2 I-25 J0
G2 I-25 J0
G2 I-25 J0
G2 I-25 J0
G2 I-25 J0
G2 I-25 J0
G2 I-25 J0
G2 I-25 J0
G2 I-25 J0
G2 I-25 J0
G2 I-25 J0
G2 I-25 J0
G2 I-25 J0
G2 I-25 J0
G2 I-25 J0
G2 I-25 J0
G2 I-25 J0
G2 I-25 J0
G2 I-25 J0
G2 I-25 J0
G2 I-25 J0
G2 I-25 J0
G2 I-25 J0
G2 I-25 J0
G2 I-25 J0
G2 I-25 J0
G2 I-25 J0
G2 I-25 J0
G2 I-25 J0
G2 I-25 J0
G2 I-25 J0
G2 I-25 J0
G2 I-25 J0
G2 I-25 J0
G2 I-25 J0
G2 I-25 J0
G2 I-25 J0
G2 I-25 J0
G2 I-25 J0
G2 I-25 J0
G2 I-25 J0
G2 I-25 J0
G2 I-25 J0
G2 I-25 J0
G2 I-25 J0
G2 I-25 J0
G2 I-25 J0
G2 I-25 J0
G2 I-25 J0
G2 I-25 J0
G2 I-25 J0
G2 I-25 J0
G2 I-25 J0
G2 I-25 J0
G2 I-25 J0
G2 I-25 J0
G2 I-25 J0
G2 I-25 J0
G2 I-25 J0
G2 I-25 J0
G2 I-25 J0
G2 I-25 J0
G2 I-25 J0
G2 I-25 J0
G2 I-25 J0
G2 I-25 J0
G2 I-25 J0
G2 I-25 J0
G2 I-25 J0
G2 I-25 J0
G2 I-25 J0
G2 I-25 J0
G2 I-25 J0
G2 I-25 J0
G2 I-25 J0
G2 I-25 J0
G2 I-25 J0
G2 I-25 J0
G2 I-25 J0
G2 I-25 J0
G2 I-25 J0
G2 I-25 J0
G2 I-25 J0
G2 I-25 J0
G2 I-25 J0
G2 I-25 J0
G2 I-25 J0
G2 I-25 J0
G2 I-25 J0
G2 I-25 J0
G2 I-25 J0
G2 I-25 J0
G2 I-25 J0
G2 I-25 J0
G2 I-25 J0
G2 I-25 J0
G2 I-25 J0
G2 I-25 J0
G2 I-25 J0
G2 I-25 J0
G2 I-25 J0
G2 I-25 J0
G2 I-25 J0
G2 I-25 J0
G2 I-25 J0
G2 I-25 J0
G2 I-25 J0
G2 I-25 J0
G2 I-25 J0
G2 I-25 J0
G2 I-25 J0
G2 I-25 J0
G2 I-25 J0
G2 I-25 J0
G2 I-25 J0
G2 I-25 J0
G2 I-25 J0
G2 I-25 J0
G2 I-25 J0
G2 I-25 J0
G2 I-25 J0
G2 I-25 J0
G2 I-25 J0
G2 I-25 J0
G2 I-25 J0
G2 I-25 J0
G2 I-25 J0
G2 I-25 J0
G2 I-25 J0
G2 I-25 J0
G2 I-25 J0
G2 I-25 J0
G2 I-25 J0
G2 I-25 J0
G2 I-25 J0
G2 I-25 J0
G2 I-25 J0
G2 I-25 J0
G2 I-25 J0
G2 I-25 J0
G2 I-25 J0
G2 I-25 J0
G2 I-25 J0
G2 I-25 J0
G2 I-25 J0
G2 I-25 J0
G2 I-25 J0
G2 I-25 J0
G2 I-25 J0
G2 I-25 J0
G2 I-25 J0
G2 I-25 J0
G2 I-25 J0
G2 I-25 J0
G2 I-25 J0
G2 I-25 J0
G2 I-25 J0
G2 I-25 J0
G2 I-25 J0
G2 I-25 J0
G2 I-25 J0
G2 I-25 J0
G2 I-25 J0
G2 I-25 J0
G2 I-25 J0
G2 I-25 J0
G2 I-25 J0
G2 I-25 J0
G2 I-25 J0
G2 I-25 J0
G2 I-25 J0
G2 I-25 J0
G2 I-25 J0
G2 I-25 J0
G2 I-25 J0
G2 I-25 J0
G2 I-25 J0
G2 I-25 J0
G2 I-25 J0
G2 I-25 J0
G2 I-25 J0
G2 I-25 J0
G2 I-25 J0
G2 I-25 J0
G2 I-25 J0
G2 I-25 J0
G2 I-25 J0
G2 I-25 J0
G2 I-25 J0
G2 I-25 J0
G2 I-25 J0
G2 I-25 J0
G2 I-25 J0
G2 I-25 J0
G2 I-25 J0
G2 I-25 J0
G2 I-25 J0
G28
G4 S1

