;Hrose Racing
G28
G4 S1
G90
G1 X0 Y0 Z150 F7000
G91
G4 S0.5

;1
;;;;;;;;;;;;;;;;;;;;;;;;;;;;;;;;;;;;;;;;;;;;;;;;;;;;;;;;;;;;;;;;;;;;;;;;;;;;;;;;
G1 Z-25 F15000
G1 Z25 F10400

G1 X-25 F960
G1 X25 F2240

G1 X25 F960
G1 X-25 F2240

G4 S0.001


G1 Z-25 F15000
G1 Z25 F10400

G1 X-25 F960
G1 X25 F2240

G1 X25 F960
G1 X-25 F2240

G4 S0.001


G1 Z-25 F15000
G1 Z25 F10400

G1 X-25 F960
G1 X25 F2240

G1 X25 F960
G1 X-25 F2240

G4 S0.001


G1 Z-25 F15000
G1 Z25 F10400

G1 X-25 F960
G1 X25 F2240

G1 X25 F960
G1 X-25 F2240

G4 S0.001


G1 Z-25 F15000
G1 Z25 F10400

G1 X-25 F960
G1 X25 F2240

G1 X25 F960
G1 X-25 F2240

G4 S0.001


G1 Z-25 F15000
G1 Z25 F10400

G1 X-25 F960
G1 X25 F2240

G1 X25 F960
G1 X-25 F2240

G4 S0.001


G1 Z-25 F15000
G1 Z25 F10400

G1 X-25 F960
G1 X25 F2240

G1 X25 F960
G1 X-25 F2240

G4 S0.001


G1 Z-25 F15000
G1 Z25 F10400

G1 X-25 F960
G1 X25 F2240

G1 X25 F960
G1 X-25 F2240

G1 Z-25 F15000
G1 Z25 F10400

G1 X-25 F960
G1 X25 F2240

G1 X25 F960
G1 X-25 F2240

G4 S0.001


G1 Z-25 F15000
G1 Z25 F10400

G1 X-25 F960
G1 X25 F2240

G1 X25 F960
G1 X-25 F2240

G4 S0.001


G1 Z-25 F15000
G1 Z25 F10400

G1 X-25 F960
G1 X25 F2240

G1 X25 F960
G1 X-25 F2240

G4 S0.001


G1 Z-25 F15000
G1 Z25 F10400

G1 X-25 F960
G1 X25 F2240

G1 X25 F960
G1 X-25 F2240

G1 Z-25 F15000
G1 Z25 F10400

G1 X-25 F960
G1 X25 F2240

G1 X25 F960
G1 X-25 F2240

G4 S0.001


G1 Z-25 F15000
G1 Z25 F10400

G1 X-25 F960
G1 X25 F2240

G1 X25 F960
G1 X-25 F2240

G4 S0.001


G1 Z-25 F15000
G1 Z25 F10400

G1 X-25 F960
G1 X25 F2240

G1 X25 F960
G1 X-25 F2240

G4 S0.001


G1 Z-25 F15000
G1 Z25 F10400

G1 X-25 F960
G1 X25 F2240

G1 X25 F960
G1 X-25 F2240


;2
;;;;;;;;;;;;;;;;;;;;;;;;;;;;;;;;;;;;;;;;;;;;;;;;;;;;;;;;;;;;;;;;;;;;;;;;;;;;;;;;
G1 Z-25 F15000
G1 Z25 F10400

G1 X-25 F960
G1 X25 F2240

G1 X25 F960
G1 X-25 F2240

G4 S0.001


G1 Z-25 F15000
G1 Z25 F10400

G1 X-25 F960
G1 X25 F2240

G1 X25 F960
G1 X-25 F2240

G4 S0.001


G1 Z-25 F15000
G1 Z25 F10400

G1 X-25 F960
G1 X25 F2240

G1 X25 F960
G1 X-25 F2240

G4 S0.001


G1 Z-25 F15000
G1 Z25 F10400

G1 X-25 F960
G1 X25 F2240

G1 X25 F960
G1 X-25 F2240

G4 S0.001


G1 Z-25 F15000
G1 Z25 F10400

G1 X-25 F960
G1 X25 F2240

G1 X25 F960
G1 X-25 F2240

G4 S0.001


G1 Z-25 F15000
G1 Z25 F10400

G1 X-25 F960
G1 X25 F2240

G1 X25 F960
G1 X-25 F2240

G4 S0.001


G1 Z-25 F15000
G1 Z25 F10400

G1 X-25 F960
G1 X25 F2240

G1 X25 F960
G1 X-25 F2240

G4 S0.001


G1 Z-25 F15000
G1 Z25 F10400

G1 X-25 F960
G1 X25 F2240

G1 X25 F960
G1 X-25 F2240

G1 Z-25 F15000
G1 Z25 F10400

G1 X-25 F960
G1 X25 F2240

G1 X25 F960
G1 X-25 F2240

G4 S0.001


G1 Z-25 F15000
G1 Z25 F10400

G1 X-25 F960
G1 X25 F2240

G1 X25 F960
G1 X-25 F2240

G4 S0.001


G1 Z-25 F15000
G1 Z25 F10400

G1 X-25 F960
G1 X25 F2240

G1 X25 F960
G1 X-25 F2240

G4 S0.001


G1 Z-25 F15000
G1 Z25 F10400

G1 X-25 F960
G1 X25 F2240

G1 X25 F960
G1 X-25 F2240

G1 Z-25 F15000
G1 Z25 F10400

G1 X-25 F960
G1 X25 F2240

G1 X25 F960
G1 X-25 F2240

G4 S0.001


G1 Z-25 F15000
G1 Z25 F10400

G1 X-25 F960
G1 X25 F2240

G1 X25 F960
G1 X-25 F2240

G4 S0.001


G1 Z-25 F15000
G1 Z25 F10400

G1 X-25 F960
G1 X25 F2240

G1 X25 F960
G1 X-25 F2240

G4 S0.001


G1 Z-25 F15000
G1 Z25 F10400

G1 X-25 F960
G1 X25 F2240

G1 X25 F960
G1 X-25 F2240



;

G4 S5

; ALHUDHUD
;;;;;;;;;;;;;;;;;;;;;;;;;;;;;;;;;;;;;;;;;;;;;;;;;;;;;;;;;;;;;;;;;;;;;;;;;;;;;;;;

G90
G1 X0 Y0 Z150 F7000
G91
G4 S0.5

G1 Z-25 F15000
G1 Z25 F5200

G1 Z-25 F15000
G1 Z25 F2600

G1 X-25 F960
G1 X25 F560

G4 S0.1


G1 Z-25 F15000
G1 Z25 F2600

G1 X-25 F960
G1 X25 F280

G4 S0.19


G1 Z-25 F15000
G1 Z25 F5200

G1 Z-25 F15000
G1 Z25 F2600

G1 X-25 F960
G1 X25 F560

G4 S0.1


G1 Z-25 F15000
G1 Z25 F2600

G1 X-25 F960
G1 X25 F280

G4 S0.19


G1 Z-25 F15000
G1 Z25 F5200

G1 Z-25 F15000
G1 Z25 F2600

G1 X-25 F960
G1 X25 F560

G4 S0.1


G1 Z-25 F15000
G1 Z25 F2600

G1 X-25 F960
G1 X25 F280

G4 S0.19


G1 Z-25 F15000
G1 Z25 F5200

G1 Z-25 F15000
G1 Z25 F2600

G1 X-25 F960
G1 X25 F560

G4 S0.1


G1 Z-25 F15000
G1 Z25 F2600

G1 X-25 F960
G1 X25 F280

G4 S0.19

G1 Z-25 F15000
G1 Z25 F5200

G1 Z-25 F15000
G1 Z25 F2600

G1 X-25 F960
G1 X25 F560

G4 S0.1


G1 Z-25 F15000
G1 Z25 F2600

G1 X-25 F960
G1 X25 F280

G4 S0.19


G1 Z-25 F15000
G1 Z25 F5200

G1 Z-25 F15000
G1 Z25 F2600

G1 X-25 F960
G1 X25 F560

G4 S0.1


G1 Z-25 F15000
G1 Z25 F2600

G1 X-25 F960
G1 X25 F280

G4 S0.19


G1 Z-25 F15000
G1 Z25 F5200

G1 Z-25 F15000
G1 Z25 F2600

G1 X-25 F960
G1 X25 F560

G4 S0.1


G1 Z-25 F15000
G1 Z25 F2600

G1 X-25 F960
G1 X25 F280

G4 S0.19


G1 Z-25 F15000
G1 Z25 F5200

G1 Z-25 F15000
G1 Z25 F2600

G1 X-25 F960
G1 X25 F560

G4 S0.1


G1 Z-25 F15000
G1 Z25 F2600

G1 X-25 F960
G1 X25 F280

G4 S0.19


;;;;;;;;;;;;;;;;;;;;;;;;;;;;;;;;;;;;;;;;;;;;;;;;;;;;;;;;;;;;;;;;;;;;;;;;;;;;;;;;
;
G4 S5
G90
G1 X0 Y0 Z150 F7000
G91
G4 S0.5
; horse riding
;1
G1 X-25 F960
G1 X25 F560

G4 S0.001


G1 Z-25 F15000
G1 Z25 F5200

G1 X-25 F960
G1 X25 F1120

G1 X25 F960
G1 X-25 F1120

G1 Z-25 F15000
G1 Z25 F5200

G1 X-25 F960
G1 X25 F560

G4 S0.19


G1 Z-25 F15000
G1 Z25 F5200

G1 X-25 F960
G1 X25 F1120

G1 X25 F960
G1 X-25 F1120

G1 Z-25 F15000
G1 Z25 F5200

G1 X-25 F960
G1 X25 F560

G4 S0.19


G1 Z-25 F15000
G1 Z25 F5200

G1 X-25 F960
G1 X25 F1120

G1 X25 F960
G1 X-25 F1120

G1 Z-25 F15000
G1 Z25 F5200

G1 X-25 F960
G1 X25 F560

G4 S0.19


G1 Z-25 F15000
G1 Z25 F2600

G4 S0.001


G1 X-25 F960
G1 X25 F280

G4 S0.001


G1 Z-25 F15000
G1 Z25 F2600

G4 S0.001


G1 Z-25 F15000
G1 Z25 F2600

G4 S0.001


G1 Z-25 F15000
G1 Z25 F2600

G4 S0.001


G1 X-25 F960
G1 X25 F280

G4 S0.001


G1 Z-25 F15000
G1 Z25 F2600

G4 S0.001


G1 Z-25 F15000
G1 Z25 F2600

G4 S0.001


G1 X-25 F960
G1 X25 F1120

G1 X25 F960
G1 X-25 F1120

G1 X-25 F960
G1 X25 F1120

G1 X25 F960
G1 X-25 F1120

G1 Z-25 F15000
G1 Z25 F2600

G4 S0.001


G1 X-25 F960
G1 X25 F1120

G1 X25 F960
G1 X-25 F1120

G1 X-25 F960
G1 X25 F1120

G1 X25 F960
G1 X-25 F1120

G1 Z-25 F15000
G1 Z25 F2600

G4 S0.001


G1 X-25 F960
G1 X25 F1120

G1 X25 F960
G1 X-25 F1120

G1 X-25 F960
G1 X25 F1120

G1 X25 F960
G1 X-25 F1120

G1 Z-25 F15000
G1 Z25 F2600

G4 S0.001


G1 X-25 F960
G1 X25 F1120

G1 X25 F960
G1 X-25 F1120

G1 X-25 F960
G1 X25 F1120

G1 X25 F960
G1 X-25 F1120

G1 Z-25 F15000
G1 Z25 F2600

G4 S0.001


G1 Z-25 F15000
G1 Z25 F1300

;2
;;;;;;;;;;;;;;;;;;;;;;;;;;;;;;;;;;;;;;;;;;;;;;;;;;;;;;;;;;;;;;;;;;;;;;;;;;;;;;;;
G4 S0.5

G1 X-25 F960
G1 X25 F560

G4 S0.001


G1 Z-25 F15000
G1 Z25 F5200

G1 X-25 F960
G1 X25 F1120

G1 X25 F960
G1 X-25 F1120

G1 Z-25 F15000
G1 Z25 F5200

G1 X-25 F960
G1 X25 F560

G4 S0.19


G1 Z-25 F15000
G1 Z25 F5200

G1 X-25 F960
G1 X25 F1120

G1 X25 F960
G1 X-25 F1120

G1 Z-25 F15000
G1 Z25 F5200

G1 X-25 F960
G1 X25 F560

G4 S0.19


G1 Z-25 F15000
G1 Z25 F5200

G1 X-25 F960
G1 X25 F1120

G1 X25 F960
G1 X-25 F1120

G1 Z-25 F15000
G1 Z25 F5200

G1 X-25 F960
G1 X25 F560

G4 S0.19


G1 Z-25 F15000
G1 Z25 F2600

G4 S0.001


G1 X-25 F960
G1 X25 F280

G4 S0.001


G1 Z-25 F15000
G1 Z25 F2600

G4 S0.001


G1 Z-25 F15000
G1 Z25 F2600

G4 S0.001


G1 Z-25 F15000
G1 Z25 F2600

G4 S0.001


G1 X-25 F960
G1 X25 F280

G4 S0.001


G1 Z-25 F15000
G1 Z25 F2600

G4 S0.001


G1 Z-25 F15000
G1 Z25 F2600

G4 S0.001


G1 X-25 F960
G1 X25 F1120

G1 X25 F960
G1 X-25 F1120

G1 X-25 F960
G1 X25 F1120

G1 X25 F960
G1 X-25 F1120

G1 Z-25 F15000
G1 Z25 F2600

G4 S0.001


G1 X-25 F960
G1 X25 F1120

G1 X25 F960
G1 X-25 F1120

G1 X-25 F960
G1 X25 F1120

G1 X25 F960
G1 X-25 F1120

G1 Z-25 F15000
G1 Z25 F2600

G4 S0.001


G1 X-25 F960
G1 X25 F1120

G1 X25 F960
G1 X-25 F1120

G1 X-25 F960
G1 X25 F1120

G1 X25 F960
G1 X-25 F1120

G1 Z-25 F15000
G1 Z25 F2600

G4 S0.001


G1 X-25 F960
G1 X25 F1120

G1 X25 F960
G1 X-25 F1120

G1 X-25 F960
G1 X25 F1120

G1 X25 F960
G1 X-25 F1120

G1 Z-25 F15000
G1 Z25 F2600

G4 S0.001


G1 Z-25 F15000
G1 Z25 F1300


;;;;;;;;;;;;;;;;;;;;;;;;;;;;;;;;;;;;;;;;;;;;;;;;;;;;;;;;;;;;;;;;;;;;;;;;;;;;;;;;
;

G4 S5
G90
G1 X0 Y0 Z150 F7000
G91
G4 S0.5
; NAKNAKA 

G1 Z-25 F15000
G1 Z25 F2600

G1 Z-25 F15000
G1 Z25 F2600

G1 Z-25 F15000
G1 Z25 F2600

G1 Z-25 F15000
G1 Z25 F2600

G4 S0.001


G1 Z-25 F15000
G1 Z25 F2600

G1 Z-25 F15000
G1 Z25 F2600

G1 Z-25 F15000
G1 Z25 F2600

G1 Z-25 F15000
G1 Z25 F2600

G4 S0.001


G1 Z-25 F15000
G1 Z25 F2600

G1 Z-25 F15000
G1 Z25 F2600

G1 Z-25 F15000
G1 Z25 F2600

G1 Z-25 F15000
G1 Z25 F2600

G4 S0.001


G1 Z-25 F15000
G1 Z25 F2600

G1 Z-25 F15000
G1 Z25 F2600

G1 Z-25 F15000
G1 Z25 F2600

G1 Z-25 F15000
G1 Z25 F5200

G1 Z-25 F15000
G1 Z25 F5200

G4 S0.001


G1 Z-25 F15000
G1 Z25 F5200

G1 Z-25 F15000
G1 Z25 F5200

G1 Z-25 F15000
G1 Z25 F2600

G1 Z-25 F15000
G1 Z25 F2600

G1 Z-25 F15000
G1 Z25 F2600

G4 S0.001


G1 Z-25 F15000
G1 Z25 F5200

G1 Z-25 F15000
G1 Z25 F5200

G1 Z-25 F15000
G1 Z25 F5200

G1 Z-25 F15000
G1 Z25 F5200

G1 Z-25 F15000
G1 Z25 F5200

G1 Z-25 F15000
G1 Z25 F5200

G1 Z-25 F15000
G1 Z25 F5200

G1 Z-25 F15000
G1 Z25 F5200

G4 S0.001


G1 Z-25 F15000
G1 Z25 F5200

G1 Z-25 F15000
G1 Z25 F5200

G1 Z-25 F15000
G1 Z25 F5200

G1 Z-25 F15000
G1 Z25 F5200

G1 Z-25 F15000
G1 Z25 F5200

G1 Z-25 F15000
G1 Z25 F5200

G1 Z-25 F15000
G1 Z25 F2600

G4 S0.001


G1 Z-25 F15000
G1 Z25 F5200

G1 Z-25 F15000
G1 Z25 F5200

G1 Z-25 F15000
G1 Z25 F5200

G1 Z-25 F15000
G1 Z25 F5200

G1 Z-25 F15000
G1 Z25 F5200

G1 Z-25 F15000
G1 Z25 F5200

G1 Z-25 F15000
G1 Z25 F5200

G1 Z-25 F15000
G1 Z25 F5200

G4 S0.001


G1 Z-25 F15000
G1 Z25 F5200

G1 Z-25 F15000
G1 Z25 F5200

G1 Z-25 F15000
G1 Z25 F5200

G1 Z-25 F15000
G1 Z25 F5200

G1 Z-25 F15000
G1 Z25 F5200

G1 Z-25 F15000
G1 Z25 F5200

G1 Z-25 F15000
G1 Z25 F2600

G4 S0.001


G1 Z-25 F15000
G1 Z25 F5200

G1 X-25 F960
G1 X25 F560

G4 S0.001


G1 Z-25 F15000
G1 Z25 F5200

G1 Z-25 F15000
G1 Z25 F5200

G1 Z-25 F15000
G1 Z25 F5200

G1 Z-25 F15000
G1 Z25 F5200

G1 Z-25 F15000
G1 Z25 F2600

G4 S0.001


G1 Z-25 F15000
G1 Z25 F5200

G1 X-25 F960
G1 X25 F560

G4 S0.001


G1 Z-25 F15000
G1 Z25 F5200

G1 Z-25 F15000
G1 Z25 F5200

G1 Z-25 F15000
G1 Z25 F5200

G1 Z-25 F15000
G1 Z25 F5200

G1 Z-25 F15000
G1 Z25 F2600

G4 S0.001


;2
;;;;;;;;;;;;;;;;;;;;;;;;;;;;;;;;;;;;;;;;;;;;;;;;;;;;;;;;;;;;;;;;;;;;;;;;;;;;;;;;
G1 Z-25 F15000
G1 Z25 F2600

G1 Z-25 F15000
G1 Z25 F2600

G1 Z-25 F15000
G1 Z25 F2600

G1 Z-25 F15000
G1 Z25 F2600

G4 S0.001


G1 Z-25 F15000
G1 Z25 F2600

G1 Z-25 F15000
G1 Z25 F2600

G1 Z-25 F15000
G1 Z25 F2600

G1 Z-25 F15000
G1 Z25 F2600

G4 S0.001


G1 Z-25 F15000
G1 Z25 F2600

G1 Z-25 F15000
G1 Z25 F2600

G1 Z-25 F15000
G1 Z25 F2600

G1 Z-25 F15000
G1 Z25 F2600

G4 S0.001


G1 Z-25 F15000
G1 Z25 F2600

G1 Z-25 F15000
G1 Z25 F2600

G1 Z-25 F15000
G1 Z25 F2600

G1 Z-25 F15000
G1 Z25 F5200

G1 Z-25 F15000
G1 Z25 F5200

G4 S0.001


G1 Z-25 F15000
G1 Z25 F5200

G1 Z-25 F15000
G1 Z25 F5200

G1 Z-25 F15000
G1 Z25 F2600

G1 Z-25 F15000
G1 Z25 F2600

G1 Z-25 F15000
G1 Z25 F2600

G4 S0.001


G1 Z-25 F15000
G1 Z25 F5200

G1 Z-25 F15000
G1 Z25 F5200

G1 Z-25 F15000
G1 Z25 F5200

G1 Z-25 F15000
G1 Z25 F5200

G1 Z-25 F15000
G1 Z25 F5200

G1 Z-25 F15000
G1 Z25 F5200

G1 Z-25 F15000
G1 Z25 F5200

G1 Z-25 F15000
G1 Z25 F5200

G4 S0.001


G1 Z-25 F15000
G1 Z25 F5200

G1 Z-25 F15000
G1 Z25 F5200

G1 Z-25 F15000
G1 Z25 F5200

G1 Z-25 F15000
G1 Z25 F5200

G1 Z-25 F15000
G1 Z25 F5200

G1 Z-25 F15000
G1 Z25 F5200

G1 Z-25 F15000
G1 Z25 F2600

G4 S0.001


G1 Z-25 F15000
G1 Z25 F5200

G1 Z-25 F15000
G1 Z25 F5200

G1 Z-25 F15000
G1 Z25 F5200

G1 Z-25 F15000
G1 Z25 F5200

G1 Z-25 F15000
G1 Z25 F5200

G1 Z-25 F15000
G1 Z25 F5200

G1 Z-25 F15000
G1 Z25 F5200

G1 Z-25 F15000
G1 Z25 F5200

G4 S0.001


G1 Z-25 F15000
G1 Z25 F5200

G1 Z-25 F15000
G1 Z25 F5200

G1 Z-25 F15000
G1 Z25 F5200

G1 Z-25 F15000
G1 Z25 F5200

G1 Z-25 F15000
G1 Z25 F5200

G1 Z-25 F15000
G1 Z25 F5200

G1 Z-25 F15000
G1 Z25 F2600

G4 S0.001


G1 Z-25 F15000
G1 Z25 F5200

G1 X-25 F960
G1 X25 F560

G4 S0.001


G1 Z-25 F15000
G1 Z25 F5200

G1 Z-25 F15000
G1 Z25 F5200

G1 Z-25 F15000
G1 Z25 F5200

G1 Z-25 F15000
G1 Z25 F5200

G1 Z-25 F15000
G1 Z25 F2600

G4 S0.001


G1 Z-25 F15000
G1 Z25 F5200

G1 X-25 F960
G1 X25 F560

G4 S0.001


G1 Z-25 F15000
G1 Z25 F5200

G1 Z-25 F15000
G1 Z25 F5200

G1 Z-25 F15000
G1 Z25 F5200

G1 Z-25 F15000
G1 Z25 F5200

G1 Z-25 F15000
G1 Z25 F2600

G4 S0.001

;

G4 S5
G90
G1 X0 Y0 Z150 F7000
G91
G4 S0.5
; pastle dance
;;;;;;;;;;;;;;;;;;;;;;;;;;;;;;;;;;;;;;;;;;;;;;;;;;;;;;;;;;;;;;;;;;;;;;;;;;;;;;;;
G1 X-25 F960
G1 X25 F280

G1 X-25 F960
G1 X25 F280

G1 X-25 F960
G1 X25 F280

G1 X-25 F960
G1 X25 F280

G4 S0.001


G1 X-25 F960
G1 X25 F280

G1 X-25 F960
G1 X25 F280

G1 X-25 F960
G1 X25 F280

G1 X-25 F960
G1 X25 F280

G4 S0.001


G1 Z-25 F15000
G1 Z25 F2600

G4 S0.001


G1 X-25 F960
G1 X25 F280

G4 S0.001


G1 X-25 F960
G1 X25 F560

G1 X25 F960
G1 X-25 F560

G1 X-25 F960
G1 X25 F280

G4 S0.001


G1 Z-25 F15000
G1 Z25 F2600

G4 S0.001


G1 X-25 F960
G1 X25 F280

G4 S0.001


G1 X-25 F960
G1 X25 F560

G1 X25 F960
G1 X-25 F560

G1 X-25 F960
G1 X25 F280

G4 S0.001


G1 X-25 F960
G1 X25 F280

G1 X-25 F960
G1 X25 F280

G1 X-25 F960
G1 X25 F560

G1 X25 F960
G1 X-25 F560

G1 X-25 F960
G1 X25 F280

G4 S0.001


G1 X-25 F960
G1 X25 F280

G1 X-25 F960
G1 X25 F280

G1 X-25 F960
G1 X25 F560

G1 X25 F960
G1 X-25 F560

G1 X-25 F960
G1 X25 F280

G4 S0.001


G1 X-25 F960
G1 X25 F280

G1 X-25 F960
G1 X25 F280

G1 X-25 F960
G1 X25 F560

G1 X25 F960
G1 X-25 F560

G1 X-25 F960
G1 X25 F280

G4 S0.001


G1 X-25 F960
G1 X25 F280

G1 X-25 F960
G1 X25 F280

G1 X-25 F960
G1 X25 F560

G1 X25 F960
G1 X-25 F560

G1 X-25 F960
G1 X25 F280

G4 S0.001


G1 Z-25 F15000
G1 Z25 F2600

G4 S0.001


G1 X-25 F960
G1 X25 F280

G4 S0.001


G1 X-25 F960
G1 X25 F560

G1 X25 F960
G1 X-25 F560

G1 X-25 F960
G1 X25 F280

G4 S0.001


G1 Z-25 F15000
G1 Z25 F2600

G4 S0.001


G1 X-25 F960
G1 X25 F280

G4 S0.001


G1 X-25 F960
G1 X25 F560

G1 X25 F960
G1 X-25 F560

G1 X-25 F960
G1 X25 F280

G4 S0.001


G1 X-25 F960
G1 X25 F560

G1 X25 F960
G1 X-25 F560

G1 X-25 F960
G1 X25 F560

G1 X25 F960
G1 X-25 F560

G1 X-25 F960
G1 X25 F280

G1 X-25 F960
G1 X25 F280

G4 S0.001


G1 X-25 F960
G1 X25 F560

G1 X25 F960
G1 X-25 F560

G1 X-25 F960
G1 X25 F560

G1 X25 F960
G1 X-25 F560

G1 X-25 F960
G1 X25 F280

G1 X-25 F960
G1 X25 F280

G4 S0.19

;2
G1 X-25 F960
G1 X25 F280

G1 X-25 F960
G1 X25 F280

G1 X-25 F960
G1 X25 F280

G1 X-25 F960
G1 X25 F280

G4 S0.001


G1 X-25 F960
G1 X25 F280

G1 X-25 F960
G1 X25 F280

G1 X-25 F960
G1 X25 F280

G1 X-25 F960
G1 X25 F280

G4 S0.001


G1 Z-25 F15000
G1 Z25 F2600

G4 S0.001


G1 X-25 F960
G1 X25 F280

G4 S0.001


G1 X-25 F960
G1 X25 F560

G1 X25 F960
G1 X-25 F560

G1 X-25 F960
G1 X25 F280

G4 S0.001


G1 Z-25 F15000
G1 Z25 F2600

G4 S0.001


G1 X-25 F960
G1 X25 F280

G4 S0.001


G1 X-25 F960
G1 X25 F560

G1 X25 F960
G1 X-25 F560

G1 X-25 F960
G1 X25 F280

G4 S0.001


G1 X-25 F960
G1 X25 F280

G1 X-25 F960
G1 X25 F280

G1 X-25 F960
G1 X25 F560

G1 X25 F960
G1 X-25 F560

G1 X-25 F960
G1 X25 F280

G4 S0.001


G1 X-25 F960
G1 X25 F280

G1 X-25 F960
G1 X25 F280

G1 X-25 F960
G1 X25 F560

G1 X25 F960
G1 X-25 F560

G1 X-25 F960
G1 X25 F280

G4 S0.001


G1 X-25 F960
G1 X25 F280

G1 X-25 F960
G1 X25 F280

G1 X-25 F960
G1 X25 F560

G1 X25 F960
G1 X-25 F560

G1 X-25 F960
G1 X25 F280

G4 S0.001


G1 X-25 F960
G1 X25 F280

G1 X-25 F960
G1 X25 F280

G1 X-25 F960
G1 X25 F560

G1 X25 F960
G1 X-25 F560

G1 X-25 F960
G1 X25 F280

G4 S0.001


G1 Z-25 F15000
G1 Z25 F2600

G4 S0.001


G1 X-25 F960
G1 X25 F280

G4 S0.001


G1 X-25 F960
G1 X25 F560

G1 X25 F960
G1 X-25 F560

G1 X-25 F960
G1 X25 F280

G4 S0.001


G1 Z-25 F15000
G1 Z25 F2600

G4 S0.001


G1 X-25 F960
G1 X25 F280

G4 S0.001


G1 X-25 F960
G1 X25 F560

G1 X25 F960
G1 X-25 F560

G1 X-25 F960
G1 X25 F280

G4 S0.001


G1 X-25 F960
G1 X25 F560

G1 X25 F960
G1 X-25 F560

G1 X-25 F960
G1 X25 F560

G1 X25 F960
G1 X-25 F560

G1 X-25 F960
G1 X25 F280

G1 X-25 F960
G1 X25 F280

G4 S0.001


G1 X-25 F960
G1 X25 F560

G1 X25 F960
G1 X-25 F560

G1 X-25 F960
G1 X25 F560

G1 X25 F960
G1 X-25 F560

G1 X-25 F960
G1 X25 F280

G1 X-25 F960
G1 X25 F280

G4 S0.001
;;;;;;;;;;;;;;;;;;;;;;;;;;;;;;;;;;;;;;;;;;;;;;;;;;;;;;;;;;;;;;;;;;;;;;;;;;;;;;;;
;

G4 S5
G90
G1 X0 Y0 Z150 F7000
G91
G4 S0.5
; Dove sound

G1 X-25 F960
G1 X25 F280

G4 S0.001


G1 Z-25 F15000
G1 Z25 F2600

G4 S0.001


G1 X-25 F960
G1 X25 F280

G4 S0.001


G1 Z-25 F15000
G1 Z25 F2600

G4 S0.001


G1 X-25 F960
G1 X25 F280

G4 S0.001


G1 Z-25 F15000
G1 Z25 F2600

G4 S0.001


G1 X-25 F960
G1 X25 F280

G4 S0.001


G1 Z-25 F15000
G1 Z25 F2600

G4 S0.001


G1 Z-25 F15000
G1 Z25 F2600

G1 Z-25 F15000
G1 Z25 F5200

G1 Z-25 F15000
G1 Z25 F5200

G1 Z-25 F15000
G1 Z25 F5200

G1 Z-25 F15000
G1 Z25 F5200

G1 Z-25 F15000
G1 Z25 F2600

G4 S0.001


G1 Z-25 F15000
G1 Z25 F5200

G1 Z-25 F15000
G1 Z25 F5200

G1 Z-25 F15000
G1 Z25 F2600

G1 Z-25 F15000
G1 Z25 F5200

G1 Z-25 F15000
G1 Z25 F5200

G1 Z-25 F15000
G1 Z25 F2600

G4 S0.001


G1 Z-25 F15000
G1 Z25 F5200

G1 Z-25 F15000
G1 Z25 F5200

G1 Z-25 F15000
G1 Z25 F2600

G1 Z-25 F15000
G1 Z25 F2600

G1 Z-25 F15000
G1 Z25 F2600

G4 S0.001


G1 Z-25 F15000
G1 Z25 F5200

G1 Z-25 F15000
G1 Z25 F5200

G1 Z-25 F15000
G1 Z25 F2600

G1 Z-25 F15000
G1 Z25 F5200

G1 Z-25 F15000
G1 Z25 F5200

G1 Z-25 F15000
G1 Z25 F2600

G4 S0.001


G1 Z-25 F15000
G1 Z25 F5200

G1 Z-25 F15000
G1 Z25 F5200

G1 Z-25 F15000
G1 Z25 F2600

G1 Z-25 F15000
G1 Z25 F2600

G1 Z-25 F15000
G1 Z25 F2600

G4 S0.001


G1 Z-25 F15000
G1 Z25 F5200

G1 Z-25 F15000
G1 Z25 F5200

G1 Z-25 F15000
G1 Z25 F2600

G1 Z-25 F15000
G1 Z25 F5200

G1 Z-25 F15000
G1 Z25 F5200

G1 Z-25 F15000
G1 Z25 F2600

G4 S0.001


G1 Z-25 F15000
G1 Z25 F5200

G1 Z-25 F15000
G1 Z25 F5200

G1 Z-25 F15000
G1 Z25 F2600

G1 Z-25 F15000
G1 Z25 F2600

G1 Z-25 F15000
G1 Z25 F2600

G4 S0.19

;2
;;;;;;;;;;;;;;;;;;;;;;;;;;;;;;;;;;;;;;;;;;;;;;;;;;;;;;;;;;;;;;;;;;;;;;;;;;;;;;;;
G1 X-25 F960
G1 X25 F280

G4 S0.001


G1 Z-25 F15000
G1 Z25 F2600

G4 S0.001


G1 X-25 F960
G1 X25 F280

G4 S0.001


G1 Z-25 F15000
G1 Z25 F2600

G4 S0.001


G1 X-25 F960
G1 X25 F280

G4 S0.001


G1 Z-25 F15000
G1 Z25 F2600

G4 S0.001


G1 X-25 F960
G1 X25 F280

G4 S0.001


G1 Z-25 F15000
G1 Z25 F2600

G4 S0.001


G1 Z-25 F15000
G1 Z25 F2600

G1 Z-25 F15000
G1 Z25 F5200

G1 Z-25 F15000
G1 Z25 F5200

G1 Z-25 F15000
G1 Z25 F5200

G1 Z-25 F15000
G1 Z25 F5200

G1 Z-25 F15000
G1 Z25 F2600

G4 S0.001


G1 Z-25 F15000
G1 Z25 F5200

G1 Z-25 F15000
G1 Z25 F5200

G1 Z-25 F15000
G1 Z25 F2600

G1 Z-25 F15000
G1 Z25 F5200

G1 Z-25 F15000
G1 Z25 F5200

G1 Z-25 F15000
G1 Z25 F2600

G4 S0.001


G1 Z-25 F15000
G1 Z25 F5200

G1 Z-25 F15000
G1 Z25 F5200

G1 Z-25 F15000
G1 Z25 F2600

G1 Z-25 F15000
G1 Z25 F2600

G1 Z-25 F15000
G1 Z25 F2600

G4 S0.001


G1 Z-25 F15000
G1 Z25 F5200

G1 Z-25 F15000
G1 Z25 F5200

G1 Z-25 F15000
G1 Z25 F2600

G1 Z-25 F15000
G1 Z25 F5200

G1 Z-25 F15000
G1 Z25 F5200

G1 Z-25 F15000
G1 Z25 F2600

G4 S0.001


G1 Z-25 F15000
G1 Z25 F5200

G1 Z-25 F15000
G1 Z25 F5200

G1 Z-25 F15000
G1 Z25 F2600

G1 Z-25 F15000
G1 Z25 F2600

G1 Z-25 F15000
G1 Z25 F2600

G4 S0.001


G1 Z-25 F15000
G1 Z25 F5200

G1 Z-25 F15000
G1 Z25 F5200

G1 Z-25 F15000
G1 Z25 F2600

G1 Z-25 F15000
G1 Z25 F5200

G1 Z-25 F15000
G1 Z25 F5200

G1 Z-25 F15000
G1 Z25 F2600

G4 S0.001


G1 Z-25 F15000
G1 Z25 F5200

G1 Z-25 F15000
G1 Z25 F5200

G1 Z-25 F15000
G1 Z25 F2600

G1 Z-25 F15000
G1 Z25 F2600

G1 Z-25 F15000
G1 Z25 F2600

G4 S0.001

;;;;;;;;;;;;;;;;;;;;;;;;;;;;;;;;;;;;;;;;;;;;;;;;;;;;;;;;;;;;;;;;;;;;;;;;;;;;;;;;
;

G4 S5
G90
G1 X0 Y0 Z150 F7000
G91
G4 S0.5
;Clean the instroment
G1 Z-25 F15000
G1 Z25 F2600

G4 S0.001


G1 X-25 F960
G1 X25 F280

G4 S0.001


G1 X-25 F960
G1 X25 F560

G4 S0.001


G1 Z-25 F15000
G1 Z25 F5200

G4 S0.001


G1 X-25 F960
G1 X25 F280

G4 S0.001


G1 X-25 F960
G1 X25 F280

G4 S0.001


G1 Z-25 F15000
G1 Z25 F2600

G4 S0.001


G1 Z-25 F15000
G1 Z25 F5200

G4 S0.001


G1 X-25 F960
G1 X25 F560

G4 S0.001


G1 Z-25 F15000
G1 Z25 F2600

G4 S0.001


G1 Z-25 F15000
G1 Z25 F2600

G4 S0.001


G1 X-25 F960
G1 X25 F280

G4 S0.001


G1 X-25 F960
G1 X25 F560

G4 S0.001


G1 Z-25 F15000
G1 Z25 F5200

G4 S0.001


G1 X-25 F960
G1 X25 F280

G4 S0.001


G1 X-25 F960
G1 X25 F280

G4 S0.001


G1 Z-25 F15000
G1 Z25 F2600

G4 S0.001


G1 Z-25 F15000
G1 Z25 F5200

G4 S0.001


G1 X-25 F960
G1 X25 F560

G4 S0.001


G1 Z-25 F15000
G1 Z25 F2600

G4 S0.001


G1 Z-25 F15000
G1 Z25 F5200

G1 X-25 F960
G1 X25 F1120

G1 X25 F960
G1 X-25 F1120

G1 X-25 F960
G1 X25 F1120

G1 X25 F960
G1 X-25 F1120

G1 X-25 F960
G1 X25 F1120

G1 X25 F960
G1 X-25 F1120

G1 X-25 F960
G1 X25 F1120

G1 X25 F960
G1 X-25 F1120

G1 X-25 F960
G1 X25 F1120

G1 X25 F960
G1 X-25 F1120

G1 X-25 F960
G1 X25 F280

G4 S0.001


G1 Z-25 F15000
G1 Z25 F5200

G1 X-25 F960
G1 X25 F1120

G1 X25 F960
G1 X-25 F1120

G1 X-25 F960
G1 X25 F1120

G1 X25 F960
G1 X-25 F1120

G1 X-25 F960
G1 X25 F1120

G1 X25 F960
G1 X-25 F1120

G1 X-25 F960
G1 X25 F1120

G1 X25 F960
G1 X-25 F1120

G1 X-25 F960
G1 X25 F1120

G1 X25 F960
G1 X-25 F1120

G1 X-25 F960
G1 X25 F280

G4 S0.001


G1 Z-25 F15000
G1 Z25 F2600

G4 S0.001


G1 X-25 F960
G1 X25 F280

G4 S0.001


G1 X-25 F960
G1 X25 F560

G4 S0.001


G1 Z-25 F15000
G1 Z25 F5200

G4 S0.001


G1 X-25 F960
G1 X25 F280

G4 S0.001


G1 X-25 F960
G1 X25 F280

G4 S0.001


G1 Z-25 F15000
G1 Z25 F2600

G4 S0.001


G1 Z-25 F15000
G1 Z25 F5200

G4 S0.001


G1 X-25 F960
G1 X25 F560

G4 S0.001


G1 Z-25 F15000
G1 Z25 F2600

G4 S0.001

;;;;;;;;;;;;;;;;;;;;;;;;;;;;;;;;;;;;;;;;;;;
;

G4 S5

;Clean the instroment
G1 Z-25 F15000
G1 Z25 F2600

G4 S0.001


G1 X-25 F960
G1 X25 F280

G4 S0.001


G1 X-25 F960
G1 X25 F560

G4 S0.001


G1 Z-25 F15000
G1 Z25 F5200

G4 S0.001


G1 X-25 F960
G1 X25 F280

G4 S0.001


G1 X-25 F960
G1 X25 F280

G4 S0.001


G1 Z-25 F15000
G1 Z25 F2600

G4 S0.001


G1 Z-25 F15000
G1 Z25 F5200

G4 S0.001


G1 X-25 F960
G1 X25 F560

G4 S0.001


G1 Z-25 F15000
G1 Z25 F2600

G4 S0.001


G1 Z-25 F15000
G1 Z25 F2600

G4 S0.001


G1 X-25 F960
G1 X25 F280

G4 S0.001


G1 X-25 F960
G1 X25 F560

G4 S0.001


G1 Z-25 F15000
G1 Z25 F5200

G4 S0.001


G1 X-25 F960
G1 X25 F280

G4 S0.001


G1 X-25 F960
G1 X25 F280

G4 S0.001


G1 Z-25 F15000
G1 Z25 F2600

G4 S0.001


G1 Z-25 F15000
G1 Z25 F5200

G4 S0.001


G1 X-25 F960
G1 X25 F560

G4 S0.001


G1 Z-25 F15000
G1 Z25 F2600

G4 S0.001


G1 Z-25 F15000
G1 Z25 F5200

G1 X-25 F960
G1 X25 F1120

G1 X25 F960
G1 X-25 F1120

G1 X-25 F960
G1 X25 F1120

G1 X25 F960
G1 X-25 F1120

G1 X-25 F960
G1 X25 F1120

G1 X25 F960
G1 X-25 F1120

G1 X-25 F960
G1 X25 F1120

G1 X25 F960
G1 X-25 F1120

G1 X-25 F960
G1 X25 F1120

G1 X25 F960
G1 X-25 F1120

G1 X-25 F960
G1 X25 F280

G4 S0.001


G1 Z-25 F15000
G1 Z25 F5200

G1 X-25 F960
G1 X25 F1120

G1 X25 F960
G1 X-25 F1120

G1 X-25 F960
G1 X25 F1120

G1 X25 F960
G1 X-25 F1120

G1 X-25 F960
G1 X25 F1120

G1 X25 F960
G1 X-25 F1120

G1 X-25 F960
G1 X25 F1120

G1 X25 F960
G1 X-25 F1120

G1 X-25 F960
G1 X25 F1120

G1 X25 F960
G1 X-25 F1120

G1 X-25 F960
G1 X25 F280

G4 S0.001


G1 Z-25 F15000
G1 Z25 F2600

G4 S0.001


G1 X-25 F960
G1 X25 F280

G4 S0.001


G1 X-25 F960
G1 X25 F560

G4 S0.001


G1 Z-25 F15000
G1 Z25 F5200

G4 S0.001


G1 X-25 F960
G1 X25 F280

G4 S0.001


G1 X-25 F960
G1 X25 F280

G4 S0.001


G1 Z-25 F15000
G1 Z25 F2600

G4 S0.001


G1 Z-25 F15000
G1 Z25 F5200

G4 S0.001


G1 X-25 F960
G1 X25 F560

G4 S0.001


G1 Z-25 F15000
G1 Z25 F2600

G4 S0.001

G28