G28
G4 S1
G90
G1 X0 Y0 Z150 F7000
G91
G4 S0.5


G1 Z-25 F15000
G1 Z25 F5200

G1 X-25 F960
G1 X25 F1120

G1 X25 F960
G1 X-25 F1120

G1 X-25 F960
G1 X25 F1120

G1 X25 F960
G1 X-25 F1120

G1 Z-25 F15000
G1 Z25 F5200

G4 S0.001


G1 X-25 F960
G1 X25 F1120

G1 X25 F960
G1 X-25 F1120

G1 X-25 F960
G1 X25 F1120

G1 X25 F960
G1 X-25 F1120

G1 Z-25 F15000
G1 Z25 F5200

G1 X-25 F960
G1 X25 F1120

G1 X25 F960
G1 X-25 F1120

G4 S0.001


G1 Z-25 F15000
G1 Z25 F5200

G1 X-25 F960
G1 X25 F1120

G1 X25 F960
G1 X-25 F1120

G1 Z-25 F15000
G1 Z25 F5200

G1 X-25 F960
G1 X25 F1120

G1 X25 F960
G1 X-25 F1120

G4 S0.001


G1 Z-25 F15000
G1 Z25 F5200

G1 X-25 F960
G1 X25 F1120

G1 X25 F960
G1 X-25 F1120

G1 Z-25 F15000
G1 Z25 F5200

G1 X-25 F960
G1 X25 F1120

G1 X25 F960
G1 X-25 F1120

G4 S0.001


G1 Z-25 F15000
G1 Z25 F5200

G1 X-25 F960
G1 X25 F1120

G1 X25 F960
G1 X-25 F1120

G1 Z-25 F15000
G1 Z25 F5200

G1 X-25 F960
G1 X25 F560

G4 S0.19


G1 Z-25 F15000
G1 Z25 F5200

G1 X-25 F960
G1 X25 F1120

G1 X25 F960
G1 X-25 F1120

G1 Z-25 F15000
G1 Z25 F5200

G1 X-25 F960
G1 X25 F560

G4 S0.19


G1 Z-25 F15000
G1 Z25 F5200

G1 X-25 F960
G1 X25 F1120

G1 X25 F960
G1 X-25 F1120

G1 Z-25 F15000
G1 Z25 F5200

G1 X-25 F960
G1 X25 F560

G4 S0.19


G1 Z-25 F15000
G1 Z25 F5200

G1 X-25 F960
G1 X25 F1120

G1 X25 F960
G1 X-25 F1120

G1 X-25 F960
G1 X25 F1120

G1 X25 F960
G1 X-25 F1120

G1 Z-25 F15000
G1 Z25 F5200

G4 S0.001


G1 X-25 F960
G1 X25 F1120

G1 X25 F960
G1 X-25 F1120

G1 X-25 F960
G1 X25 F1120

G1 X25 F960
G1 X-25 F1120

G1 Z-25 F15000
G1 Z25 F5200

G1 X-25 F960
G1 X25 F1120

G1 X25 F960
G1 X-25 F1120

G4 S0.001


G1 Z-25 F15000
G1 Z25 F5200

G1 X-25 F960
G1 X25 F1120

G1 X25 F960
G1 X-25 F1120

G1 Z-25 F15000
G1 Z25 F5200

G1 X-25 F960
G1 X25 F1120

G1 X25 F960
G1 X-25 F1120

G4 S0.001


G1 Z-25 F15000
G1 Z25 F5200

G1 X-25 F960
G1 X25 F1120

G1 X25 F960
G1 X-25 F1120

G1 Z-25 F15000
G1 Z25 F5200

G1 X-25 F960
G1 X25 F1120

G1 X25 F960
G1 X-25 F1120

G4 S0.001


G1 Z-25 F15000
G1 Z25 F5200

G1 X-25 F960
G1 X25 F1120

G1 X25 F960
G1 X-25 F1120

G1 Z-25 F15000
G1 Z25 F5200

G1 X-25 F960
G1 X25 F560

G4 S0.19


G1 Z-25 F15000
G1 Z25 F5200

G1 X-25 F960
G1 X25 F1120

G1 X25 F960
G1 X-25 F1120

G1 Z-25 F15000
G1 Z25 F5200

G1 X-25 F960
G1 X25 F560

G4 S0.19


G1 Z-25 F15000
G1 Z25 F5200

G1 X-25 F960
G1 X25 F1120

G1 X25 F960
G1 X-25 F1120

G1 Z-25 F15000
G1 Z25 F5200

G1 X-25 F960
G1 X25 F560

G4 S0.19

G1 Z-25 F15000
G1 Z25 F5200

G1 X-25 F960
G1 X25 F1120

G1 X25 F960
G1 X-25 F1120

G1 X-25 F960
G1 X25 F1120

G1 X25 F960
G1 X-25 F1120

G1 Z-25 F15000
G1 Z25 F5200

G4 S0.001


G1 X-25 F960
G1 X25 F1120

G1 X25 F960
G1 X-25 F1120

G1 X-25 F960
G1 X25 F1120

G1 X25 F960
G1 X-25 F1120

G1 Z-25 F15000
G1 Z25 F5200

G1 X-25 F960
G1 X25 F1120

G1 X25 F960
G1 X-25 F1120

G4 S0.001


G1 Z-25 F15000
G1 Z25 F5200

G1 X-25 F960
G1 X25 F1120

G1 X25 F960
G1 X-25 F1120

G1 Z-25 F15000
G1 Z25 F5200

G1 X-25 F960
G1 X25 F1120

G1 X25 F960
G1 X-25 F1120

G4 S0.001


G1 Z-25 F15000
G1 Z25 F5200

G1 X-25 F960
G1 X25 F1120

G1 X25 F960
G1 X-25 F1120

G1 Z-25 F15000
G1 Z25 F5200

G1 X-25 F960
G1 X25 F1120

G1 X25 F960
G1 X-25 F1120

G4 S0.001


G1 Z-25 F15000
G1 Z25 F5200

G1 X-25 F960
G1 X25 F1120

G1 X25 F960
G1 X-25 F1120

G1 Z-25 F15000
G1 Z25 F5200

G1 X-25 F960
G1 X25 F560

G4 S0.19


G1 Z-25 F15000
G1 Z25 F5200

G1 X-25 F960
G1 X25 F1120

G1 X25 F960
G1 X-25 F1120

G1 Z-25 F15000
G1 Z25 F5200

G1 X-25 F960
G1 X25 F560

G4 S0.19


G1 Z-25 F15000
G1 Z25 F5200

G1 X-25 F960
G1 X25 F1120

G1 X25 F960
G1 X-25 F1120

G1 Z-25 F15000
G1 Z25 F5200

G1 X-25 F960
G1 X25 F560

G4 S0.19


G1 Z-25 F15000
G1 Z25 F5200

G1 X-25 F960
G1 X25 F1120

G1 X25 F960
G1 X-25 F1120

G1 X-25 F960
G1 X25 F1120

G1 X25 F960
G1 X-25 F1120

G1 Z-25 F15000
G1 Z25 F5200

G4 S0.001


G1 X-25 F960
G1 X25 F1120

G1 X25 F960
G1 X-25 F1120

G1 X-25 F960
G1 X25 F1120

G1 X25 F960
G1 X-25 F1120

G1 Z-25 F15000
G1 Z25 F5200

G1 X-25 F960
G1 X25 F1120

G1 X25 F960
G1 X-25 F1120

G4 S0.001


G1 Z-25 F15000
G1 Z25 F5200

G1 X-25 F960
G1 X25 F1120

G1 X25 F960
G1 X-25 F1120

G1 Z-25 F15000
G1 Z25 F5200

G1 X-25 F960
G1 X25 F1120

G1 X25 F960
G1 X-25 F1120

G4 S0.001


G1 Z-25 F15000
G1 Z25 F5200

G1 X-25 F960
G1 X25 F1120

G1 X25 F960
G1 X-25 F1120

G1 Z-25 F15000
G1 Z25 F5200

G1 X-25 F960
G1 X25 F1120

G1 X25 F960
G1 X-25 F1120

G4 S0.001


G1 Z-25 F15000
G1 Z25 F5200

G1 X-25 F960
G1 X25 F1120

G1 X25 F960
G1 X-25 F1120

G1 Z-25 F15000
G1 Z25 F5200

G1 X-25 F960
G1 X25 F560

G4 S0.19


G1 Z-25 F15000
G1 Z25 F5200

G1 X-25 F960
G1 X25 F1120

G1 X25 F960
G1 X-25 F1120

G1 Z-25 F15000
G1 Z25 F5200

G1 X-25 F960
G1 X25 F560

G4 S0.19


G1 Z-25 F15000
G1 Z25 F5200

G1 X-25 F960
G1 X25 F1120

G1 X25 F960
G1 X-25 F1120

G1 Z-25 F15000
G1 Z25 F5200

G1 X-25 F960
G1 X25 F560

G4 S0.19
